%YAML 1.1
%TAG !u! tag:unity3d.com,2011:
--- !u!74 &7400000
AnimationClip:
  m_ObjectHideFlags: 0
  m_CorrespondingSourceObject: {fileID: 0}
  m_PrefabInstance: {fileID: 0}
  m_PrefabAsset: {fileID: 0}
  m_Name: Hit
  serializedVersion: 6
  m_Legacy: 0
  m_Compressed: 0
  m_UseHighQualityCurve: 1
  m_RotationCurves: []
  m_CompressedRotationCurves: []
  m_EulerCurves: []
  m_PositionCurves: []
  m_ScaleCurves: []
  m_FloatCurves: []
  m_PPtrCurves:
  - curve:
    - time: 0
      value: {fileID: 21300000, guid: 60271dba12262c545ad52fe74accce2a, type: 3}
    - time: 0.016666668
      value: {fileID: 21300000, guid: f45fb39503a907042b1198dd9a0edabd, type: 3}
    - time: 0.033333335
      value: {fileID: 21300000, guid: e696919fc8cd6684690d6b2c7c81c6d2, type: 3}
    - time: 0.05
      value: {fileID: 21300000, guid: 2c50ab8eaee7a274a9d8a782e8275079, type: 3}
    - time: 0.06666667
      value: {fileID: 21300000, guid: 180c15dd50aba9349b04ad2fa0a28eef, type: 3}
    - time: 0.083333336
      value: {fileID: 21300000, guid: 9e8a5bfcf2f3a6746b8fde7413755223, type: 3}
    - time: 0.1
      value: {fileID: 21300000, guid: bc84a7a4e28a9c24384bd148d8bd5f40, type: 3}
    - time: 0.11666667
      value: {fileID: 21300000, guid: 194851840751f1e48a303ba068a366d9, type: 3}
    - time: 0.13333334
      value: {fileID: 21300000, guid: da6c6e54127307240aa12390aaa4b123, type: 3}
    - time: 0.15
      value: {fileID: 21300000, guid: ca4a4159b58deb546b8edb5fbe867619, type: 3}
    - time: 0.16666667
      value: {fileID: 21300000, guid: 3f0ba3a3d5bd2544a808bc43941b864b, type: 3}
    - time: 0.18333334
      value: {fileID: 21300000, guid: 505acd150d9174948aa7be0b35b3e5ed, type: 3}
    - time: 0.2
      value: {fileID: 21300000, guid: 98ca9a9157f1cd54a9d7dd0bf30f527a, type: 3}
    - time: 0.21666667
      value: {fileID: 21300000, guid: 90567a91d5ab8ba469433acb9a83e93c, type: 3}
    attribute: m_Sprite
    path: Sprite
    classID: 212
    script: {fileID: 0}
  m_SampleRate: 60
  m_WrapMode: 0
  m_Bounds:
    m_Center: {x: 0, y: 0, z: 0}
    m_Extent: {x: 0, y: 0, z: 0}
  m_ClipBindingConstant:
    genericBindings:
    - serializedVersion: 2
      path: 850496168
      attribute: 0
      script: {fileID: 0}
      typeID: 212
      customType: 23
      isPPtrCurve: 1
    pptrCurveMapping:
    - {fileID: 21300000, guid: 60271dba12262c545ad52fe74accce2a, type: 3}
    - {fileID: 21300000, guid: f45fb39503a907042b1198dd9a0edabd, type: 3}
    - {fileID: 21300000, guid: e696919fc8cd6684690d6b2c7c81c6d2, type: 3}
    - {fileID: 21300000, guid: 2c50ab8eaee7a274a9d8a782e8275079, type: 3}
    - {fileID: 21300000, guid: 180c15dd50aba9349b04ad2fa0a28eef, type: 3}
    - {fileID: 21300000, guid: 9e8a5bfcf2f3a6746b8fde7413755223, type: 3}
    - {fileID: 21300000, guid: bc84a7a4e28a9c24384bd148d8bd5f40, type: 3}
    - {fileID: 21300000, guid: 194851840751f1e48a303ba068a366d9, type: 3}
    - {fileID: 21300000, guid: da6c6e54127307240aa12390aaa4b123, type: 3}
    - {fileID: 21300000, guid: ca4a4159b58deb546b8edb5fbe867619, type: 3}
    - {fileID: 21300000, guid: 3f0ba3a3d5bd2544a808bc43941b864b, type: 3}
    - {fileID: 21300000, guid: 505acd150d9174948aa7be0b35b3e5ed, type: 3}
    - {fileID: 21300000, guid: 98ca9a9157f1cd54a9d7dd0bf30f527a, type: 3}
    - {fileID: 21300000, guid: 90567a91d5ab8ba469433acb9a83e93c, type: 3}
  m_AnimationClipSettings:
    serializedVersion: 2
    m_AdditiveReferencePoseClip: {fileID: 0}
    m_AdditiveReferencePoseTime: 0
    m_StartTime: 0
    m_StopTime: 0.23333333
    m_OrientationOffsetY: 0
    m_Level: 0
    m_CycleOffset: 0
    m_HasAdditiveReferencePose: 0
    m_LoopTime: 0
    m_LoopBlend: 0
    m_LoopBlendOrientation: 0
    m_LoopBlendPositionY: 0
    m_LoopBlendPositionXZ: 0
    m_KeepOriginalOrientation: 0
    m_KeepOriginalPositionY: 1
    m_KeepOriginalPositionXZ: 0
    m_HeightFromFeet: 0
    m_Mirror: 0
  m_EditorCurves: []
  m_EulerEditorCurves: []
  m_HasGenericRootTransform: 0
  m_HasMotionFloatCurves: 0
  m_Events: []
