%YAML 1.1
%TAG !u! tag:unity3d.com,2011:
--- !u!1045 &1
EditorBuildSettings:
  m_ObjectHideFlags: 0
  serializedVersion: 2
  m_Scenes:
  - enabled: 1
    path: Assets/_Source/Scene/default Menu.unity
    guid: 33b48b78f9abf644aa2efa20054732de
  - enabled: 1
    path: Assets/_Source/Scene/default MainGame.unity
    guid: 7de5b80ad78d31d48bacb5b4459e67b5
  m_configObjects: {}
